; ModuleID = 'main.cpp'
source_filename = "main.cpp"
target datalayout = "e-m:w-i64:64-f80:128-n8:16:32:64-S128"
target triple = "x86_64-pc-windows-msvc19.10.25019"

%struct.anon = type { i32, i32*, i8*, i32, i8* }

@"\01?SomeStruct@@3U<unnamed-type-SomeStruct>@@A" = internal global %struct.anon zeroinitializer, align 8

; Function Attrs: noinline norecurse nounwind optnone uwtable
define i32 @main() #0 {
  %1 = alloca i32, align 4
  store i32 0, i32* %1, align 4
  store i32 0, i32* getelementptr inbounds (%struct.anon, %struct.anon* @"\01?SomeStruct@@3U<unnamed-type-SomeStruct>@@A", i32 0, i32 0), align 8
  ret i32 0
}

attributes #0 = { noinline norecurse nounwind optnone uwtable "correctly-rounded-divide-sqrt-fp-math"="false" "disable-tail-calls"="false" "less-precise-fpmad"="false" "no-frame-pointer-elim"="false" "no-infs-fp-math"="false" "no-jump-tables"="false" "no-nans-fp-math"="false" "no-signed-zeros-fp-math"="false" "no-trapping-math"="false" "stack-protector-buffer-size"="8" "target-cpu"="x86-64" "target-features"="+fxsr,+mmx,+sse,+sse2,+x87" "unsafe-fp-math"="false" "use-soft-float"="false" }

!llvm.module.flags = !{!0, !1}
!llvm.ident = !{!2}

!0 = !{i32 1, !"wchar_size", i32 2}
!1 = !{i32 7, !"PIC Level", i32 2}
!2 = !{!"clang version 5.0.1 (tags/RELEASE_501/final)"}
